…
  - `countries`
      - Additional information, such as naming schemes, regions, etc.,
        about the countries included in `datapoints`

<!-- end list -->

``` r
countries
#> # A tibble: 273 x 33
#>    country alt_5 alternative_1 alternative_2 alternative_3 alternative_4_c…
#>    <chr>   <chr> <chr>         <chr>         <chr>         <chr>           
#>  1 abkh    <NA>  <NA>          <NA>          <NA>          <NA>            
#>  2 abw     <NA>  <NA>          <NA>          <NA>          Aruba           
#>  3 afg     <NA>  Islamic Repu… <NA>          <NA>          Afghanistan     
#>  4 ago     <NA>  <NA>          <NA>          <NA>          Angola          
#>  5 aia     <NA>  <NA>          <NA>          <NA>          <NA>            
#>  6 akr_a_… <NA>  <NA>          <NA>          <NA>          <NA>            
#>  7 ala     <NA>  √Öland        <NA>          <NA>          <NA>            
#>  8 alb     <NA>  <NA>          <NA>          <NA>          Albania         
#>  9 and     <NA>  <NA>          <NA>          <NA>          <NA>            
#> 10 ant     <NA>  Neth. Antill… <NA>          <NA>          Netherland Anti…
#> # ... with 263 more rows, and 27 more variables: arb1 <chr>, arb2 <chr>,
#> #   arb3 <chr>, arb4 <chr>, arb5 <chr>, arb6 <chr>,
#> #   g77_and_oecd_countries <chr>, gapminder_list <chr>, god_id <chr>,
#> #   gwid <chr>, income_groups <chr>, `is--country` <lgl>,
#> #   iso3166_1_alpha2 <chr>, iso3166_1_alpha3 <chr>,
#> #   iso3166_1_numeric <int>, iso3166_2 <chr>, landlocked <chr>,
#> #   latitude <dbl>, longitude <dbl>, main_religion_2008 <chr>, name <chr>,
#> #   pandg <chr>, un_state <lgl>, unicode_region_subtag <chr>,
#> #   upper_case_name <chr>, world_4region <chr>, world_6region <chr>
```

  - `concepts`
      - Descriptions of each of the variables in `datapoints`, including
        sources, tags, etc.

<!-- end list -->

``` r
concepts
#> # A tibble: 534 x 8
#>    concept description indicator_url name  name_catalog name_short
#>    <chr>   <chr>       <chr>         <chr> <chr>        <chr>     
#>  1 adults… The estima… <NA>          Adul… Adults with… Adults wi…
#>  2 age_at… The mean a… <NA>          Age … Age at 1st … Age at 1s…
#>  3 aged_1… Percentage… <NA>          Aged… Aged 15-24   Employmen…
#>  4 aged_1… Percentage… <NA>          Aged… Aged 15-24   Unemploym…
#>  5 aged_1… For age gr… <NA>          Aged… Aged 15-64   Labour fo…
#>  6 aged_1… Percentage… <NA>          Aged… Aged 15+     Employmen…
#>  7 aged_1… For age gr… <NA>          Aged… Aged 15+     Labour fo…
#>  8 aged_1… Percentage… <NA>          Aged… Aged 15+     Unemploym…
#>  9 aged_2… For age gr… <NA>          Aged… Aged 25-54   Labour fo…
#> 10 aged_2… Percentage… <NA>          Aged… Aged 25-54   Unemploym…
#> # ... with 524 more rows, and 2 more variables: source_url <chr>,
#> #   tags <chr>
```
…
